Wall time,Step,Value
1682555896.4070258,2048,-179.66622924804688
1682555898.8686101,4096,-172.63116455078125
1682555901.441233,6144,-164.64439392089844
1682555904.170605,8192,-159.06222534179688
1682555906.654722,10240,-149.27650451660156
1682555909.123311,12288,-133.50320434570312
1682555911.70617,14336,-114.14021301269531
1682555914.8519528,16384,-106.39251708984375
1682555917.90178,18432,-93.09329986572266
1682555920.569406,20480,-86.66657257080078
1682555923.2731252,22528,-80.63069152832031
1682555926.030536,24576,-74.60082244873047
1682555929.715841,26624,-75.87176513671875
1682555934.048919,28672,-71.63440704345703
1682555938.639925,30720,-67.76814270019531
1682555945.7186172,32768,-63.73720169067383
1682555950.5820642,34816,-65.1688232421875
1682555955.43228,36864,-64.74463653564453
1682555960.089779,38912,-62.63190841674805
1682555966.375571,40960,-61.86149597167969
1682555972.700882,43008,-59.43773651123047
1682555977.483433,45056,-55.537841796875
1682555982.517727,47104,-54.02733612060547
1682555987.2749782,49152,-52.92573165893555
1682555993.672296,51200,-51.6651725769043
1682555999.04245,53248,-49.08092498779297
1682556006.024485,55296,-46.727333068847656
1682556013.077394,57344,-44.96031188964844
1682556020.8263721,59392,-41.22451400756836
1682556026.2416909,61440,-39.53797912597656
1682556031.048678,63488,-36.79871368408203
1682556036.820044,65536,-34.209510803222656
1682556041.8594,67584,-30.864131927490234
1682556047.6372721,69632,-28.493118286132812
1682556053.196875,71680,-25.743675231933594
1682556059.056057,73728,-23.540040969848633
1682556064.001709,75776,-19.299028396606445
1682556069.1701849,77824,-15.633432388305664
1682556074.914294,79872,-13.153057098388672
1682556080.61548,81920,-6.903707027435303
1682556085.951574,83968,-5.021242141723633
1682556091.045888,86016,-3.08215594291687
1682556094.949327,88064,-0.14188805222511292
1682556100.014556,90112,4.322088241577148
1682556104.5618298,92160,6.6951069831848145
1682556109.506355,94208,9.290553092956543
1682556114.686506,96256,12.088044166564941
1682556118.53166,98304,16.1259708404541
1682556122.994327,100352,19.783212661743164
1682556127.7599418,102400,22.986297607421875
1682556131.9335501,104448,30.202974319458008
1682556137.161462,106496,33.247554779052734
1682556141.9654772,108544,43.21092987060547
1682556147.14746,110592,49.38080596923828
1682556151.9935942,112640,51.72309494018555
1682556155.983735,114688,58.22111511230469
1682556160.242964,116736,59.81993865966797
1682556164.5819242,118784,66.2965087890625
1682556170.6092422,120832,69.01702117919922
1682556175.7172322,122880,70.71273803710938
1682556179.61262,124928,71.73825073242188
1682556183.816761,126976,74.11090087890625
1682556188.3060842,129024,81.74372100830078
1682556193.3210108,131072,85.08557891845703
1682556197.796976,133120,83.83891296386719
1682556203.0834649,135168,85.4343490600586
1682556207.042604,137216,88.4676742553711
1682556210.8441558,139264,92.04449462890625
1682556214.905115,141312,90.65645599365234
1682556218.662762,143360,89.47915649414062
1682556222.478828,145408,89.86165618896484
1682556225.97651,147456,88.56350708007812
1682556229.7708879,149504,91.8673095703125
1682556233.601249,151552,92.10858154296875
1682556239.018989,153600,93.97476196289062
1682556243.164531,155648,96.03553009033203
1682556248.005595,157696,96.5885238647461
1682556252.2524061,159744,99.10261535644531
1682556256.3196428,161792,99.96295166015625
1682556260.284058,163840,98.8932113647461
1682556264.381747,165888,99.79563903808594
1682556268.926047,167936,101.6526107788086
1682556274.555308,169984,100.12162780761719
1682556279.258726,172032,100.83476257324219
1682556283.257889,174080,102.14286041259766
1682556287.514726,176128,98.83242797851562
1682556291.314883,178176,99.42240905761719
1682556295.500542,180224,99.45034790039062
1682556299.668997,182272,104.28487396240234
1682556303.639978,184320,107.22166442871094
1682556307.992119,186368,105.96072387695312
1682556311.88157,188416,109.7618408203125
1682556316.05296,190464,110.258544921875
1682556321.254601,192512,113.77601623535156
1682556326.251901,194560,114.74674224853516
1682556331.1256971,196608,116.4884033203125
1682556335.961416,198656,113.6883316040039
1682556340.3238,200704,116.8760757446289
1682556344.991785,202752,123.74796295166016
1682556348.8277261,204800,126.49986267089844
1682556352.95377,206848,128.30218505859375
1682556357.050397,208896,129.70361328125
1682556361.2033448,210944,126.30050659179688
1682556366.118293,212992,128.5999755859375
1682556370.357228,215040,123.48090362548828
1682556374.537045,217088,123.64864349365234
1682556378.725009,219136,125.56581115722656
1682556382.59844,221184,130.61614990234375
1682556387.332017,223232,133.4071502685547
1682556391.5019588,225280,136.1320343017578
1682556395.5258062,227328,137.89871215820312
1682556399.107736,229376,140.1366729736328
1682556402.953196,231424,146.2869110107422
1682556406.643671,233472,150.11741638183594
1682556410.210881,235520,155.43360900878906
1682556413.7487411,237568,153.1927490234375
1682556417.4640388,239616,157.15382385253906
1682556420.929874,241664,157.30953979492188
1682556424.77347,243712,160.59141540527344
1682556428.50105,245760,156.89186096191406
1682556432.095888,247808,160.9729461669922
1682556435.459019,249856,163.37123107910156
1682556438.7853272,251904,162.16473388671875
1682556442.1488152,253952,158.97738647460938
1682556446.1531699,256000,159.656005859375
1682556450.067961,258048,159.70550537109375
1682556454.104651,260096,160.59422302246094
1682556457.694645,262144,164.6110382080078
1682556462.044587,264192,169.530029296875
1682556465.785717,266240,169.38418579101562
1682556471.339199,268288,169.09486389160156
1682556475.39056,270336,166.75848388671875
1682556478.6867788,272384,164.14797973632812
1682556482.308067,274432,163.17225646972656
1682556485.876055,276480,159.4464569091797
1682556489.8407419,278528,158.3111572265625
1682556493.921767,280576,152.6719512939453
1682556497.52995,282624,154.0388946533203
1682556502.3704672,284672,152.42498779296875
1682556505.869189,286720,149.47178649902344
1682556509.572036,288768,151.041259765625
1682556513.18287,290816,148.74826049804688
1682556517.741291,292864,147.96424865722656
1682556521.340548,294912,148.38063049316406
1682556524.932511,296960,145.84835815429688
1682556528.6677382,299008,139.54949951171875
1682556532.9538062,301056,142.10935974121094
1682556537.1612391,303104,144.56724548339844
1682556541.054944,305152,145.5733642578125
1682556545.0277262,307200,146.79397583007812
1682556548.458046,309248,154.2172393798828
1682556552.3422139,311296,154.72735595703125
1682556556.1020741,313344,157.38943481445312
1682556559.886113,315392,155.55616760253906
1682556564.0575209,317440,154.0575714111328
1682556568.317834,319488,153.7619171142578
1682556571.8196301,321536,150.84933471679688
1682556575.298152,323584,148.0487518310547
1682556579.462262,325632,147.03623962402344
1682556583.467575,327680,145.2605743408203
1682556586.8142211,329728,142.1786651611328
1682556591.0817091,331776,142.17750549316406
1682556596.248163,333824,139.0957794189453
1682556600.092681,335872,139.01907348632812
1682556603.908449,337920,140.41162109375
1682556607.6045911,339968,142.16415405273438
1682556611.589903,342016,143.3399658203125
1682556615.246896,344064,142.81378173828125
1682556618.978477,346112,145.1363525390625
1682556623.1852648,348160,143.71644592285156
1682556626.690437,350208,144.69619750976562
1682556630.194229,352256,142.89688110351562
1682556633.66307,354304,139.96697998046875
1682556638.296688,356352,135.03762817382812
1682556643.462145,358400,126.11134338378906
1682556648.6280892,360448,119.70237731933594
1682556654.497767,362496,119.26787567138672
1682556659.074364,364544,113.33992004394531
1682556662.7425358,366592,112.1478500366211
1682556667.4614882,368640,112.32460021972656
1682556671.682087,370688,114.82388305664062
1682556675.442162,372736,113.65373229980469
1682556679.049719,374784,117.7635498046875
1682556683.0376809,376832,117.22865295410156
1682556687.852876,378880,118.83322143554688
1682556691.691741,380928,123.81978607177734
1682556695.93649,382976,123.42420196533203
1682556699.8936598,385024,125.81644439697266
1682556704.6343732,387072,127.56053161621094
1682556708.222192,389120,126.82975769042969
1682556712.559853,391168,127.6280288696289
1682556715.9544,393216,127.83646392822266
1682556719.362675,395264,125.9977798461914
1682556722.676227,397312,128.06739807128906
1682556726.28059,399360,128.2221221923828
1682556730.4590359,401408,130.3854522705078
1682556734.35453,403456,132.39772033691406
1682556737.8824902,405504,134.6448974609375
1682556741.4827,407552,136.625
1682556745.417249,409600,140.6114959716797
1682556749.813518,411648,142.6851043701172
1682556754.2292101,413696,146.56797790527344
1682556758.043038,415744,146.57408142089844
1682556762.265391,417792,147.09051513671875
1682556766.378556,419840,147.91883850097656
1682556770.645108,421888,153.0430145263672
1682556774.7766342,423936,149.55113220214844
1682556778.698355,425984,150.3946990966797
1682556782.169627,428032,153.093017578125
1682556785.6067,430080,156.64837646484375
1682556789.071797,432128,153.4058380126953
1682556792.618098,434176,150.40419006347656
1682556796.150787,436224,149.83319091796875
1682556800.640952,438272,147.55633544921875
1682556804.9726138,440320,145.72052001953125
1682556808.279657,442368,147.4651336669922
1682556812.273452,444416,145.9994659423828
1682556815.592705,446464,150.79580688476562
1682556818.967222,448512,156.56280517578125
1682556822.611617,450560,156.24472045898438
1682556825.907233,452608,150.0607147216797
1682556829.3194282,454656,148.24163818359375
1682556832.6759338,456704,149.0228271484375
1682556836.713239,458752,148.5769805908203
1682556840.3079019,460800,150.4219207763672
1682556843.733621,462848,153.78060913085938
1682556847.268539,464896,157.15103149414062
1682556850.757589,466944,154.98199462890625
1682556854.188425,468992,154.5196990966797
1682556857.938085,471040,156.3167724609375
1682556862.483419,473088,155.9193572998047
1682556866.4273531,475136,153.2404327392578
1682556870.477539,477184,155.21038818359375
1682556875.023548,479232,158.66619873046875
1682556878.359539,481280,162.56246948242188
1682556881.9871192,483328,167.42657470703125
1682556885.767018,485376,172.1826171875
1682556889.0846741,487424,172.135498046875
1682556892.848893,489472,172.5185546875
1682556896.43286,491520,171.81214904785156
1682556900.2176251,493568,170.18936157226562
1682556903.7270389,495616,169.7031707763672
1682556907.136072,497664,178.90585327148438
1682556911.664895,499712,181.0554962158203
1682556915.395417,501760,183.5760498046875
1682556919.310682,503808,186.45558166503906
1682556923.528199,505856,185.26248168945312
1682556927.716786,507904,186.03733825683594
1682556931.052553,509952,179.6587677001953
1682556934.873678,512000,178.32896423339844
1682556938.14219,514048,178.79251098632812
1682556941.448051,516096,185.50259399414062
1682556944.949481,518144,181.3793182373047
1682556948.270314,520192,184.13430786132812
1682556951.783659,522240,187.14398193359375
1682556955.095892,524288,184.5454559326172
1682556959.17193,526336,184.72947692871094
1682556963.9210281,528384,184.1378631591797
1682556968.07284,530432,184.9951934814453
1682556972.419669,532480,186.3966522216797
1682556976.328456,534528,186.27011108398438
1682556979.913119,536576,190.8177947998047
1682556983.449718,538624,190.13287353515625
1682556986.855016,540672,187.46533203125
1682556990.3840718,542720,188.71080017089844
1682556994.1633852,544768,189.04949951171875
1682556997.7355561,546816,185.28953552246094
1682557000.946549,548864,184.37841796875
1682557004.25508,550912,185.95623779296875
1682557008.472229,552960,186.4893035888672
1682557011.924403,555008,188.44508361816406
1682557015.5421638,557056,187.5491943359375
1682557018.776949,559104,187.46768188476562
1682557021.959431,561152,184.7140350341797
1682557025.230981,563200,183.76910400390625
1682557028.874103,565248,186.29627990722656
1682557032.27679,567296,182.26695251464844
1682557035.966362,569344,181.22291564941406
1682557039.532523,571392,178.23013305664062
1682557042.787115,573440,177.41998291015625
1682557046.27703,575488,175.43995666503906
1682557049.8771358,577536,176.4954376220703
1682557053.407757,579584,176.83438110351562
1682557056.639342,581632,173.08201599121094
1682557059.804887,583680,171.72439575195312
1682557063.432676,585728,172.2056121826172
1682557067.482489,587776,170.41799926757812
1682557071.294637,589824,172.72842407226562
1682557074.924363,591872,172.4416046142578
1682557078.0677462,593920,172.00552368164062
1682557081.325571,595968,162.8141326904297
1682557084.3636658,598016,164.64878845214844
1682557087.819268,600064,168.05465698242188
1682557091.88383,602112,168.3934326171875
1682557095.156745,604160,168.28369140625
1682557098.534752,606208,171.20921325683594
1682557102.240662,608256,172.06854248046875
1682557105.4842281,610304,172.2420196533203
1682557108.459265,612352,177.0837860107422
1682557111.492126,614400,172.19790649414062
1682557115.1230578,616448,175.6892547607422
1682557118.585994,618496,174.45433044433594
1682557123.672134,620544,179.38589477539062
1682557129.4922931,622592,180.77072143554688
1682557133.052638,624640,175.89157104492188
1682557136.0934799,626688,173.25381469726562
1682557139.2201679,628736,176.35581970214844
1682557142.350213,630784,174.48927307128906
1682557146.072669,632832,182.39959716796875
1682557149.380501,634880,185.60211181640625
1682557153.1965618,636928,176.76846313476562
1682557156.386896,638976,172.45489501953125
1682557159.3555908,641024,161.24864196777344
1682557163.9367082,643072,161.72789001464844
1682557167.1514308,645120,159.14218139648438
1682557170.183541,647168,157.71075439453125
1682557173.7434828,649216,155.98292541503906
1682557178.6756558,651264,154.08778381347656
1682557182.18318,653312,151.6423797607422
1682557185.970743,655360,146.680908203125
1682557190.15567,657408,150.3985137939453
1682557194.162308,659456,151.61569213867188
1682557197.977947,661504,152.6943817138672
1682557201.283537,663552,157.88267517089844
1682557204.55054,665600,166.42108154296875
1682557208.007236,667648,164.22598266601562
1682557211.490565,669696,167.5514678955078
1682557214.7538629,671744,164.34207153320312
1682557218.3491578,673792,162.4102020263672
1682557221.3903859,675840,163.72232055664062
1682557224.8852391,677888,165.5522918701172
1682557228.23575,679936,172.4846649169922
1682557231.538008,681984,177.97352600097656
1682557235.438953,684032,178.7623748779297
1682557238.665231,686080,179.86497497558594
1682557242.9254038,688128,178.07925415039062
1682557245.8925388,690176,173.6844482421875
1682557249.6162539,692224,178.748046875
1682557252.787093,694272,184.75416564941406
1682557255.88837,696320,186.6289825439453
1682557259.5605628,698368,184.11264038085938
1682557263.705884,700416,181.42059326171875
1682557267.1054668,702464,181.35340881347656
1682557271.106179,704512,180.75428771972656
1682557274.516265,706560,181.07127380371094
1682557278.0980601,708608,181.61204528808594
1682557282.92013,710656,183.48072814941406
1682557287.208886,712704,185.82188415527344
1682557291.726655,714752,189.05967712402344
1682557295.2620642,716800,186.54983520507812
1682557298.763032,718848,183.86306762695312
1682557302.130007,720896,185.80674743652344
1682557305.6561751,722944,186.17047119140625
1682557308.9789472,724992,189.3326416015625
1682557311.9519901,727040,195.6758270263672
1682557315.41067,729088,197.79600524902344
1682557318.3542762,731136,188.61489868164062
1682557321.5022862,733184,187.07249450683594
1682557324.679643,735232,184.8551483154297
1682557328.187187,737280,184.98541259765625
1682557332.1926231,739328,181.2263946533203
1682557335.5031638,741376,169.60647583007812
1682557339.594785,743424,164.73257446289062
1682557342.673035,745472,152.9226837158203
1682557345.789613,747520,151.02310180664062
1682557349.5872169,749568,149.24359130859375
1682557352.858478,751616,151.9792022705078
1682557356.203289,753664,153.08265686035156
1682557359.80042,755712,153.48114013671875
1682557363.518948,757760,150.9570770263672
1682557367.130283,759808,152.4635009765625
1682557370.815398,761856,150.82763671875
1682557374.3584719,763904,150.4360809326172
1682557377.521336,765952,150.95358276367188
1682557381.3692958,768000,147.47169494628906
1682557384.801258,770048,149.68853759765625
1682557388.8029819,772096,144.50051879882812
1682557391.992993,774144,152.12225341796875
1682557395.408215,776192,153.1311798095703
1682557398.824075,778240,149.63168334960938
1682557402.1605608,780288,151.26617431640625
1682557405.6767008,782336,159.45986938476562
1682557408.733197,784384,165.271240234375
1682557412.147121,786432,175.5656280517578
1682557415.767474,788480,177.74285888671875
1682557419.289098,790528,175.44076538085938
1682557422.317483,792576,171.3428955078125
1682557425.644633,794624,168.99822998046875
1682557428.993632,796672,171.85633850097656
1682557432.2314749,798720,167.6896209716797
1682557436.050227,800768,171.81576538085938
1682557439.221754,802816,168.97232055664062
1682557442.451092,804864,173.13877868652344
1682557445.953622,806912,171.09564208984375
1682557449.339894,808960,170.14866638183594
1682557452.7018392,811008,162.7233428955078
1682557455.851902,813056,166.44683837890625
1682557459.4274611,815104,170.77650451660156
1682557462.52589,817152,170.92921447753906
1682557465.875393,819200,169.50025939941406
1682557469.220722,821248,169.78875732421875
1682557472.584053,823296,170.33297729492188
1682557475.6028469,825344,173.37484741210938
1682557479.225632,827392,176.2519989013672
1682557482.061949,829440,167.5873565673828
1682557485.0388858,831488,166.637451171875
1682557488.166782,833536,169.92210388183594
1682557491.9441311,835584,167.09341430664062
1682557496.555774,837632,165.48399353027344
1682557501.2380211,839680,164.546630859375
1682557504.965259,841728,160.5711212158203
1682557508.603314,843776,158.51846313476562
1682557511.6855628,845824,159.78799438476562
1682557515.70468,847872,160.0008087158203
1682557518.897007,849920,162.20248413085938
1682557522.82765,851968,165.06143188476562
1682557526.060564,854016,163.67543029785156
1682557529.512527,856064,168.26422119140625
1682557532.564768,858112,167.03750610351562
1682557536.165694,860160,165.87049865722656
1682557539.26095,862208,169.6175079345703
1682557542.292453,864256,176.47482299804688
1682557546.080811,866304,180.34449768066406
1682557549.079817,868352,173.54086303710938
1682557552.205792,870400,175.55404663085938
1682557555.545861,872448,175.00660705566406
1682557559.203763,874496,169.95330810546875
1682557562.679459,876544,173.43838500976562
1682557565.848976,878592,177.76559448242188
1682557568.905955,880640,175.87689208984375
1682557572.528244,882688,178.8075714111328
1682557576.2714229,884736,176.33187866210938
1682557579.997074,886784,169.4813690185547
1682557583.3047569,888832,165.73057556152344
1682557586.610296,890880,162.79000854492188
1682557590.605372,892928,157.4759521484375
1682557594.6674528,894976,151.04013061523438
1682557598.866338,897024,156.1522216796875
1682557602.782978,899072,149.90460205078125
1682557605.953353,901120,144.90904235839844
1682557609.4401019,903168,142.21621704101562
1682557612.473661,905216,146.8892822265625
1682557615.606624,907264,148.70074462890625
1682557619.1752179,909312,144.3375701904297
1682557622.55643,911360,145.43527221679688
1682557625.5358841,913408,141.01095581054688
1682557628.959098,915456,139.2489471435547
1682557632.110074,917504,140.8849639892578
1682557636.163766,919552,140.54388427734375
1682557640.007901,921600,140.66036987304688
1682557643.906291,923648,138.69345092773438
1682557647.55256,925696,141.59642028808594
1682557650.965211,927744,143.47909545898438
1682557654.659102,929792,143.67544555664062
1682557657.876446,931840,140.46397399902344
1682557660.96177,933888,143.24732971191406
1682557664.439518,935936,139.78616333007812
1682557667.5524108,937984,137.03880310058594
1682557670.56009,940032,136.2593994140625
1682557673.903672,942080,136.15121459960938
1682557677.33459,944128,129.81285095214844
1682557680.5775008,946176,128.943359375
1682557684.06669,948224,132.4344024658203
1682557688.031242,950272,127.36194610595703
1682557691.570579,952320,131.91464233398438
1682557694.8602939,954368,131.81259155273438
1682557697.912964,956416,126.22431945800781
1682557701.196471,958464,120.14305877685547
1682557704.2058601,960512,115.60758972167969
1682557707.335716,962560,114.84508514404297
1682557710.917383,964608,113.8783187866211
1682557715.04644,966656,114.19462585449219
1682557718.079773,968704,111.5925064086914
1682557721.315763,970752,110.19160461425781
1682557724.516176,972800,106.4710922241211
1682557728.125203,974848,110.46000671386719
1682557731.191427,976896,104.68997955322266
1682557734.362047,978944,109.34730529785156
1682557737.9697542,980992,107.19593811035156
1682557741.7417212,983040,110.22562408447266
1682557745.0837371,985088,107.08674621582031
1682557749.926816,987136,109.46636962890625
1682557753.356574,989184,109.54403686523438
1682557756.978558,991232,112.11333465576172
1682557761.06084,993280,117.26152038574219
1682557765.046788,995328,117.27729034423828
1682557768.337585,997376,120.05686950683594
1682557771.394832,999424,120.29633331298828
1682557774.710603,1001472,114.39707946777344
